<?xml version="1.0" encoding="UTF-8" standalone="no"?>
<!-- Created with Inkscape (http://www.inkscape.org/) -->

<svg
   width="80mm"
   height="80mm"
   version="1.1"
   viewBox="0 0 80 80"
   id="svg9528"
   sodipodi:docname="1columnPadding_bl.svg"
   inkscape:version="1.3.2 (091e20ef0f, 2023-11-25)"
   xmlns:inkscape="http://www.inkscape.org/namespaces/inkscape"
   xmlns:sodipodi="http://sodipodi.sourceforge.net/DTD/sodipodi-0.dtd"
   xmlns="http://www.w3.org/2000/svg"
   xmlns:svg="http://www.w3.org/2000/svg">
  <defs
     id="defs9532" />
  <sodipodi:namedview
     id="namedview9530"
     pagecolor="#ffffff"
     bordercolor="#666666"
     borderopacity="1.0"
     inkscape:showpageshadow="2"
     inkscape:pageopacity="0.0"
     inkscape:pagecheckerboard="0"
     inkscape:deskcolor="#d1d1d1"
     inkscape:document-units="mm"
     showgrid="false"
     inkscape:zoom="1.5610417"
     inkscape:cx="142.85333"
     inkscape:cy="188.33578"
     inkscape:window-width="1862"
     inkscape:window-height="1136"
     inkscape:window-x="345"
     inkscape:window-y="1107"
     inkscape:window-maximized="1"
     inkscape:current-layer="svg9528" />
  <rect
     style="display:inline;fill:#77767b;fill-opacity:1;stroke-width:0.600001;stop-color:#000000"
     id="rect6309"
     width="80"
     height="80"
     x="0"
     y="0" />
  <rect
     style="display:inline;fill:#dedede;fill-opacity:1;stroke-width:0.555;stop-color:#000000"
     id="rect7954"
     width="74"
     height="74"
     x="3"
     y="3" />
  <rect
     style="display:inline;fill:#70a8bc;fill-opacity:1;stroke-width:0.385358;stop-color:#000000"
     id="rect4855"
     width="44"
     height="60"
     x="18"
     y="10" />
</svg>
