<?xml version="1.0" encoding="UTF-8" standalone="no"?>
<svg
   width="15.750273mm"
   height="13.477208mm"
   viewBox="0 0 15.750273 13.477208"
   version="1.1"
   id="svg8"
   inkscape:version="1.1.2 (1:1.1+202202050950+0a00cf5339)"
   sodipodi:docname="hamburger_fine.svg"
   xmlns:inkscape="http://www.inkscape.org/namespaces/inkscape"
   xmlns:sodipodi="http://sodipodi.sourceforge.net/DTD/sodipodi-0.dtd"
   xmlns="http://www.w3.org/2000/svg"
   xmlns:svg="http://www.w3.org/2000/svg"
   xmlns:rdf="http://www.w3.org/1999/02/22-rdf-syntax-ns#"
   xmlns:cc="http://creativecommons.org/ns#"
   xmlns:dc="http://purl.org/dc/elements/1.1/">
  <defs
     id="defs2" />
  <sodipodi:namedview
     id="base"
     pagecolor="#ffffff"
     bordercolor="#666666"
     borderopacity="1.0"
     inkscape:pageopacity="0.0"
     inkscape:pageshadow="2"
     inkscape:zoom="5.6"
     inkscape:cx="40.982143"
     inkscape:cy="53.928571"
     inkscape:document-units="mm"
     inkscape:current-layer="layer1"
     inkscape:document-rotation="0"
     showgrid="false"
     inkscape:window-width="1868"
     inkscape:window-height="1043"
     inkscape:window-x="1972"
     inkscape:window-y="0"
     inkscape:window-maximized="1"
     inkscape:pagecheckerboard="0" />
  <metadata
     id="metadata5">
    <rdf:RDF>
      <cc:Work
         rdf:about="">
        <dc:format>image/svg+xml</dc:format>
        <dc:type
           rdf:resource="http://purl.org/dc/dcmitype/StillImage" />
      </cc:Work>
    </rdf:RDF>
  </metadata>
  <g
     inkscape:label="Layer 1"
     inkscape:groupmode="layer"
     id="layer1"
     transform="translate(-24.23444,-11.835953)">
    <path
       id="rect24"
       style="fill:#666666;stroke-width:0.264583"
       d="m 24.23444,11.835953 h 15.750273 v 1.107019 H 24.23444 Z"
       sodipodi:nodetypes="ccccc" />
    <path
       id="rect26"
       style="fill:#666666;stroke-width:0.264583"
       d="M 24.23444,18.285631 H 39.984713 V 19.39265 H 24.23444 Z"
       sodipodi:nodetypes="ccccc" />
    <path
       id="rect28"
       style="fill:#666666;stroke-width:0.264583"
       d="m 24.23444,24.206142 h 15.750273 v 1.107019 H 24.23444 Z"
       sodipodi:nodetypes="ccccc" />
  </g>
</svg>
